{
	"info": {
		"_postman_id": "8f08c26c-d0d3-4aa7-b687-cb4e48e11500",
		"name": "vod",
		"schema": "https://schema.getpostman.com/json/collection/v2.1.0/collection.json",
		"_exporter_id": "15145064",
		"_collection_link": "https://www.postman.com/realis/workspace/reactive/collection/15145064-8f08c26c-d0d3-4aa7-b687-cb4e48e11500?action=share&source=collection_link&creator=15145064"
	},
	"item": [
		{
			"name": "shutdown",
			"protocolProfileBehavior": {
				"disabledSystemHeaders": {
					"accept": true
				}
			},
			"request": {
				"auth": {
					"type": "noauth"
				},
				"method": "POST",
				"header": [
					{
						"key": "Accept",
						"value": "application/json",
						"type": "text"
					}
				],
				"url": {
					"raw": "http://localhost:8080/vod/actuator/shutdown",
					"protocol": "http",
					"host": [
						"localhost"
					],
					"port": "8080",
					"path": [
						"vod",
						"actuator",
						"shutdown"
					]
				}
			},
			"response": []
		},
		{
			"name": "get movies",
			"protocolProfileBehavior": {
				"disabledSystemHeaders": {
					"accept": true
				}
			},
			"request": {
				"auth": {
					"type": "noauth"
				},
				"method": "GET",
				"header": [
					{
						"key": "Accept",
						"value": "application/json",
						"type": "text"
					}
				],
				"url": {
					"raw": "http://localhost:8080/vod/webapi/movies",
					"protocol": "http",
					"host": [
						"localhost"
					],
					"port": "8080",
					"path": [
						"vod",
						"webapi",
						"movies"
					]
				}
			},
			"response": []
		},
		{
			"name": "get movie",
			"request": {
				"auth": {
					"type": "noauth"
				},
				"method": "GET",
				"header": [
					{
						"key": "Accept",
						"value": "application/json",
						"type": "text"
					}
				],
				"url": {
					"raw": "http://localhost:8080/vod/webapi/movies/5",
					"protocol": "http",
					"host": [
						"localhost"
					],
					"port": "8080",
					"path": [
						"vod",
						"webapi",
						"movies",
						"5"
					]
				}
			},
			"response": []
		},
		{
			"name": "get movies by cinema",
			"protocolProfileBehavior": {
				"disabledSystemHeaders": {
					"accept": true
				}
			},
			"request": {
				"auth": {
					"type": "noauth"
				},
				"method": "GET",
				"header": [
					{
						"key": "Accept",
						"value": "application/json",
						"type": "text"
					}
				],
				"url": {
					"raw": "http://localhost:8080/vod/webapi/cinemas/3/movies",
					"protocol": "http",
					"host": [
						"localhost"
					],
					"port": "8080",
					"path": [
						"vod",
						"webapi",
						"cinemas",
						"3",
						"movies"
					]
				}
			},
			"response": []
		},
		{
			"name": "add movie",
			"protocolProfileBehavior": {
				"disabledSystemHeaders": {
					"accept": true
				}
			},
			"request": {
				"auth": {
					"type": "noauth"
				},
				"method": "POST",
				"header": [
					{
						"key": "Accept",
						"value": "application/json",
						"type": "text"
					},
					{
						"key": "Content-Type",
						"value": "application/json",
						"type": "text"
					}
				],
				"body": {
					"mode": "raw",
					"raw": "{\r\n    \"title\": \"Drogówka 4\",\r\n    \"poster\": \"https://fwcdn.pl/fpo/19/79/631979/7509812.6.jpg\",\r\n    \"director\": {\r\n        \"id\": 1\r\n    },\r\n    \"rating\": \"3.2\"\r\n}"
				},
				"url": {
					"raw": "http://localhost:8080/vod/webapi/movies",
					"protocol": "http",
					"host": [
						"localhost"
					],
					"port": "8080",
					"path": [
						"vod",
						"webapi",
						"movies"
					]
				}
			},
			"response": []
		},
		{
			"name": "get cinemas by movie",
			"request": {
				"method": "GET",
				"header": [
					{
						"key": "Accept",
						"value": "application/json",
						"type": "text"
					}
				],
				"url": {
					"raw": "http://localhost:8080/vod/webapi/movies/7/cinemas",
					"protocol": "http",
					"host": [
						"localhost"
					],
					"port": "8080",
					"path": [
						"vod",
						"webapi",
						"movies",
						"7",
						"cinemas"
					]
				}
			},
			"response": []
		},
		{
			"name": "get cinemas",
			"protocolProfileBehavior": {
				"disabledSystemHeaders": {
					"accept": true
				}
			},
			"request": {
				"auth": {
					"type": "noauth"
				},
				"method": "GET",
				"header": [
					{
						"key": "Accept",
						"value": "application/json",
						"type": "text",
						"disabled": true
					}
				],
				"url": {
					"raw": "http://localhost:8080/vod/webapi/cinemas",
					"protocol": "http",
					"host": [
						"localhost"
					],
					"port": "8080",
					"path": [
						"vod",
						"webapi",
						"cinemas"
					]
				}
			},
			"response": []
		},
		{
			"name": "get cinema",
			"protocolProfileBehavior": {
				"disabledSystemHeaders": {
					"accept": true
				}
			},
			"request": {
				"method": "GET",
				"header": [
					{
						"key": "Accept",
						"value": "application/json",
						"type": "text"
					}
				],
				"url": {
					"raw": "http://localhost:8080/vod/webapi/cinemas/2",
					"protocol": "http",
					"host": [
						"localhost"
					],
					"port": "8080",
					"path": [
						"vod",
						"webapi",
						"cinemas",
						"2"
					]
				}
			},
			"response": []
		},
		{
			"name": "add cinema",
			"protocolProfileBehavior": {
				"disabledSystemHeaders": {
					"accept": true,
					"content-type": true
				}
			},
			"request": {
				"method": "POST",
				"header": [
					{
						"key": "Accept",
						"value": "application/json",
						"type": "text"
					},
					{
						"key": "Content-Type",
						"value": "application/json",
						"type": "text"
					}
				],
				"body": {
					"mode": "raw",
					"raw": "{\r\n    \"name\": \"Bajka\",\r\n    \"logo\": \"https://kinobajka.pl/wp-content/uploads/2019/01/logo-na-strone-1-updraft-pre-smush-original.jpg\"    \r\n}"
				},
				"url": {
					"raw": "http://localhost:8080/vod/webapi/cinemas",
					"protocol": "http",
					"host": [
						"localhost"
					],
					"port": "8080",
					"path": [
						"vod",
						"webapi",
						"cinemas"
					]
				}
			},
			"response": []
		}
	]
}